22

34 36
18
28 2
10 12
12 19
32 11
15 10
20 6
31 1
7 17
0 4
16 16
7 8
13 17
9 12
21 3
19 23
1 4
20 27
15 32
134 93

41 10
22
17 5
39 8
40 6
1 4
4 4
20 8
17 3
19 9
8 7
14 9
36 2
24 4
28 8
32 4
20 8
19 2
22 6
33 4
11 6
23 9
39 3
15 8
62 14

46 42
15
1 6
44 35
15 11
10 26
30 30
14 6
10 26
17 20
30 19
29 19
37 35
31 26
12 12
15 26
11 16
35 13

39 18
14
8 5
27 10
22 5
29 12
27 8
21 8
5 8
10 10
25 9
8 15
6 15
20 17
12 3
37 9
55 55

20 17
28
12 4
15 9
14 14
2 9
17 9
17 8
18 7
13 2
8 0
2 14
5 8
19 16
17 0
5 8
18 8
17 7
2 12
1 3
0 3
15 16
2 16
18 5
9 14
10 4
3 3
4 9
6 16
15 14
69 49

34 17
18
4 14
17 0
14 16
14 0
29 9
18 9
31 2
11 14
15 9
11 12
30 4
33 13
23 15
13 6
12 0
25 9
3 11
14 14
121 70

17 28
29
9 11
6 12
0 20
1 10
7 21
15 21
16 3
9 12
13 17
16 11
10 6
4 10
0 2
14 13
1 8
10 22
2 6
10 9
9 23
13 23
12 27
8 13
1 27
3 22
2 6
5 2
10 9
13 7
13 2
177 119

34 47
28
3 2
9 4
23 26
22 0
30 41
22 24
12 29
2 0
20 3
10 0
9 43
18 38
13 17
26 33
5 28
25 18
6 34
25 27
13 45
3 10
25 31
25 8
21 17
8 40
19 43
6 15
11 27
16 30
139 98

11 25
15
3 15
7 5
8 7
3 1
0 13
10 17
7 2
2 6
10 21
3 4
8 0
4 10
8 15
5 12
1 6
62 37

47 33
29
2 17
24 14
26 3
37 21
3 0
8 12
37 29
28 7
28 5
23 30
23 5
30 21
35 5
46 20
38 16
14 17
42 31
41 29
37 30
14 11
31 21
25 26
27 27
36 25
40 7
1 3
23 7
36 18
20 20
44 22

43 8
20
19 0
6 5
16 5
30 1
41 1
38 7
37 7
14 4
12 7
23 3
33 5
14 0
32 6
14 5
7 3
39 0
27 5
34 2
31 2
34 6
35 32

33 44
27
15 42
24 33
1 14
19 29
27 31
23 2
3 32
28 11
6 15
6 12
29 6
17 42
3 17
11 25
22 20
23 39
24 43
18 15
23 33
4 28
3 42
32 37
29 42
11 40
26 39
2 23
31 22
36 29

24 15
27
17 12
4 12
9 11
6 2
16 11
13 8
2 5
19 4
6 12
16 13
18 4
6 3
12 6
20 10
4 8
17 7
0 12
4 4
2 10
11 12
7 1
12 14
16 9
0 1
0 13
1 6
14 4
75 58

50 49
24
16 47
31 30
36 18
4 7
12 38
11 2
39 47
47 7
12 41
27 7
4 17
31 23
13 18
22 28
8 23
15 43
16 0
33 7
39 40
36 35
22 0
22 6
9 37
49 43
26 22

28 6
16
1 4
21 3
27 5
3 5
7 3
16 2
27 5
15 1
1 4
0 1
1 4
10 1
9 5
22 3
26 1
17 5
95 23

16 29
30
12 14
0 17
3 9
5 25
9 20
6 15
15 17
9 25
12 2
12 6
12 10
11 9
7 19
7 7
1 12
1 25
6 20
7 19
2 15
7 18
15 12
3 2
1 24
12 21
0 28
0 0
9 14
15 28
3 4
13 7
18 10

24 20
14
15 12
15 7
16 11
19 19
0 13
17 9
14 18
15 16
14 6
3 10
17 4
19 0
5 19
12 17
100 19

50 19
13
2 7
36 9
41 11
27 4
3 5
27 5
31 12
6 18
44 9
42 13
7 11
29 0
8 0
142 140

33 39
18
26 5
18 16
15 28
16 34
9 28
27 38
25 32
17 13
9 18
24 18
28 31
8 25
23 34
29 27
7 6
28 33
30 34
29 9
37 16

27 13
13
21 11
18 9
11 5
12 7
20 9
2 0
6 11
9 10
17 3
25 2
2 7
2 2
0 5
189 158

10 19
14
4 3
6 11
4 8
3 14
7 7
1 2
0 4
1 3
8 10
7 3
8 12
9 4
5 1
7 15
122 42

43 4
17
22 2
12 1
20 3
25 1
40 2
42 1
23 3
38 3
13 1
24 1
40 1
14 2
17 3
4 0
39 1
7 1
36 3
155 129
